0 0 0 0 0 0 0 0 0 0 0 0 0 0
0 0 0 0 0 0 0 0 0 0 0 0 0 0
E e m 0 0 0 m m 0 E e m 0 0
e e m m 0 m m m 0 e e m 0 0 
E e m M m M m m 0 0 0 m 0 0 
e e m 0 0 0 m m m M m m 0 0
0 0 m 0 0 0 m 0 m m m E e 0
0 0 m 0 0 0 m 0 0 m 0 e e 0 
