0 9 o o 0 0 0 0 0 0 9 o o 0
0 o o o E e 0 0 E e o o o 0
0 o o o e e 0 0 e e o o o 0
0 0 0 0 0 0 0 0 0 0 0 0 0 0
0 0 0 0 0 0 0 0 0 0 0 0 0 0
0 9 o o E e 0 0 E e 9 o o 0
0 o o o e e 0 0 e e o o o 0
0 o o o 0 0 0 0 0 0 o o o 0
