0 0 0 0 0 0 0 0 0 0 0 0 M 0
0 0 0 0 0 0 0 0 0 0 0 0 0 0
0 0 0 0 0 0 0 0 0 0 E e 0 0
0 m m m 0 0 0 E e 0 e e 0 0 
m m m m 0 E e e e 0 4 o 0 0 
m m m m 0 e e 0 0 0 o o 0 0
0 m m E e 0 0 0 0 0 0 0 M 0
0 0 M e e 0 0 0 0 0 0 0 0 0 
