0 0 0 0 0 0 0 0 0 0 0 0 0 0
0 M 0 0 0 0 0 0 0 0 0 0 M 0
0 0 E e 0 0 0 0 0 0 E e 0 0
0 0 e e 0 0 4 o 0 0 e e 0 0 
0 0 E e 0 0 o o 0 0 E e 0 0 
0 0 e e 0 0 0 0 0 0 e e 0 0
0 M 0 0 0 0 0 0 0 0 0 0 M 0
0 0 0 0 0 0 0 0 0 0 0 0 0 0 
