0 0 0 0 0 0 0 0 0 0 0 0 0 0
0 0 0 0 0 0 0 0 0 0 0 0 0 0
0 0 0 0 E 0 0 0 0 0 0 0 0 0
0 0 0 0 0 0 M M M M M 0 0 0 
0 E 0 0 M M M E 0 0 0 0 0 0 
0 0 0 M M E 0 0 0 0 0 0 0 0
0 0 M M 0 0 0 0 0 0 0 0 0 0
0 0 0 0 0 0 0 0 0 0 0 0 0 0 
