0 0 0 0 0 0 0 0 0 0 0 0 0 0
0 0 0 M M 0 0 0 0 M M M 0 0
0 0 M 0 M E 0 0 0 E 0 M 0 0
0 0 0 0 M 0 0 0 0 0 0 M 0 0 
0 0 0 0 M E 0 E 0 0 M M M 0 
0 0 0 0 M 0 0 0 0 0 0 M 0 0
0 0 0 M M M 0 0 0 0 0 M 0 0
0 0 0 0 0 0 0 0 0 0 0 0 0 0 
